{
    "spectrum": {
        "show": "true",
        "n-points": "100",
        "height": "100",
        "use-custom-color": "false",
        "fill": "true",
        "show-bar-border": "true",
        "sampling-freq": "10",
        "line-width": "2",
        "type": "Bars",
        "color": [
            "1",
            "1",
            "1",
            "1"
        ],
        "color-axis-labels": [
            "1",
            "1",
            "1",
            "1"
        ],
        "gradient-color": [
            "0",
            "0",
            "0",
            "1"
        ]
    },
    "output": {
        "blocklist": "",
        "plugins_order": [
            "equalizer",
            "maximizer",
            "convolver",
            "bass_enhancer",
            "crossfeed",
            "limiter",
            "exciter",
            "reverb",
            "autogain",
            "gate",
            "multiband_gate",
            "compressor",
            "multiband_compressor",
            "crystalizer",
            "stereo_tools",
            "deesser",
            "loudness",
            "filter",
            "pitch",
            "delay",
            "rnnoise"
        ],
        "bass_enhancer": {
            "state": "false",
            "input-gain": "0",
            "output-gain": "0",
            "amount": "5",
            "harmonics": "8.5",
            "scope": "80",
            "floor": "20",
            "blend": "0",
            "floor-active": "false",
            "listen": "false"
        },
        "compressor": {
            "state": "false",
            "input-gain": "0",
            "output-gain": "0",
            "mode": "Downward",
            "attack": "3.10087",
            "release": "25.001200000000001",
            "release-threshold": "-200",
            "threshold": "-21.072093963623047",
            "ratio": "4.2500799999999996",
            "knee": "-6",
            "makeup": "13.726968765258789",
            "boost-threshold": "-72",
            "sidechain": {
                "listen": "false",
                "type": "Feed-forward",
                "mode": "RMS",
                "source": "Middle",
                "preamp": "0",
                "reactivity": "10",
                "lookahead": "0"
            },
            "hpf-mode": "off",
            "hpf-frequency": "10",
            "lpf-mode": "off",
            "lpf-frequency": "20000"
        },
        "crossfeed": {
            "state": "false",
            "fcut": "700",
            "feed": "4.5"
        },
        "deesser": {
            "state": "false",
            "detection": "RMS",
            "mode": "Wide",
            "threshold": "-18",
            "ratio": "3",
            "laxity": "15",
            "makeup": "0",
            "f1-freq": "6000",
            "f2-freq": "4500",
            "f1-level": "0",
            "f2-level": "12",
            "f2-q": "1",
            "sc-listen": "false"
        },
        "equalizer": {
            "state": "true",
            "mode": "IIR",
            "num-bands": "10",
            "input-gain": "-2",
            "output-gain": "0",
            "split-channels": "false",
            "left": {
                "band0": {
                    "type": "Bell",
                    "mode": "RLC (BT)",
                    "slope": "x1",
                    "solo": "false",
                    "mute": "false",
                    "gain": "4",
                    "frequency": "32",
                    "q": "1.6076163800595922"
                },
                "band1": {
                    "type": "Bell",
                    "mode": "RLC (BT)",
                    "slope": "x1",
                    "solo": "false",
                    "mute": "false",
                    "gain": "2",
                    "frequency": "64",
                    "q": "1.6114336125119133"
                },
                "band2": {
                    "type": "Bell",
                    "mode": "RLC (BT)",
                    "slope": "x1",
                    "solo": "false",
                    "mute": "false",
                    "gain": "1",
                    "frequency": "125",
                    "q": "1.5774022547438429"
                },
                "band3": {
                    "type": "Bell",
                    "mode": "RLC (BT)",
                    "slope": "x1",
                    "solo": "false",
                    "mute": "false",
                    "gain": "0",
                    "frequency": "250",
                    "q": "1.5811477447449769"
                },
                "band4": {
                    "type": "Bell",
                    "mode": "RLC (BT)",
                    "slope": "x1",
                    "solo": "false",
                    "mute": "false",
                    "gain": "0",
                    "frequency": "500",
                    "q": "1.5849021282894709"
                },
                "band5": {
                    "type": "Bell",
                    "mode": "RLC (BT)",
                    "slope": "x1",
                    "solo": "false",
                    "mute": "false",
                    "gain": "0",
                    "frequency": "1000",
                    "q": "1.588665426494752"
                },
                "band6": {
                    "type": "Bell",
                    "mode": "RLC (BT)",
                    "slope": "x1",
                    "solo": "false",
                    "mute": "false",
                    "gain": "0",
                    "frequency": "2000",
                    "q": "1.5924376605283908"
                },
                "band7": {
                    "type": "Bell",
                    "mode": "RLC (BT)",
                    "slope": "x1",
                    "solo": "false",
                    "mute": "false",
                    "gain": "0.73426573426572617",
                    "frequency": "4000",
                    "q": "1.5962188516082185"
                },
                "band8": {
                    "type": "Bell",
                    "mode": "RLC (BT)",
                    "slope": "x1",
                    "solo": "false",
                    "mute": "false",
                    "gain": "0.85069444444444287",
                    "frequency": "8000",
                    "q": "1.6000090210024491"
                },
                "band9": {
                    "type": "Bell",
                    "mode": "RLC (BT)",
                    "slope": "x1",
                    "solo": "false",
                    "mute": "false",
                    "gain": "1.2152777777777786",
                    "frequency": "16000",
                    "q": "1.6038081900297951"
                }
            },
            "right": {
                "band0": {
                    "type": "Bell",
                    "mode": "RLC (BT)",
                    "slope": "x1",
                    "solo": "false",
                    "mute": "false",
                    "gain": "4",
                    "frequency": "32",
                    "q": "1.6076163800595922"
                },
                "band1": {
                    "type": "Bell",
                    "mode": "RLC (BT)",
                    "slope": "x1",
                    "solo": "false",
                    "mute": "false",
                    "gain": "2",
                    "frequency": "64",
                    "q": "1.6114336125119133"
                },
                "band2": {
                    "type": "Bell",
                    "mode": "RLC (BT)",
                    "slope": "x1",
                    "solo": "false",
                    "mute": "false",
                    "gain": "1",
                    "frequency": "125",
                    "q": "1.5774022547438429"
                },
                "band3": {
                    "type": "Bell",
                    "mode": "RLC (BT)",
                    "slope": "x1",
                    "solo": "false",
                    "mute": "false",
                    "gain": "0",
                    "frequency": "250",
                    "q": "1.5811477447449769"
                },
                "band4": {
                    "type": "Bell",
                    "mode": "RLC (BT)",
                    "slope": "x1",
                    "solo": "false",
                    "mute": "false",
                    "gain": "0",
                    "frequency": "500",
                    "q": "1.5849021282894709"
                },
                "band5": {
                    "type": "Bell",
                    "mode": "RLC (BT)",
                    "slope": "x1",
                    "solo": "false",
                    "mute": "false",
                    "gain": "0",
                    "frequency": "1000",
                    "q": "1.588665426494752"
                },
                "band6": {
                    "type": "Bell",
                    "mode": "RLC (BT)",
                    "slope": "x1",
                    "solo": "false",
                    "mute": "false",
                    "gain": "0",
                    "frequency": "2000",
                    "q": "1.5924376605283908"
                },
                "band7": {
                    "type": "Bell",
                    "mode": "RLC (BT)",
                    "slope": "x1",
                    "solo": "false",
                    "mute": "false",
                    "gain": "0.73426573426572617",
                    "frequency": "4000",
                    "q": "1.5962188516082185"
                },
                "band8": {
                    "type": "Bell",
                    "mode": "RLC (BT)",
                    "slope": "x1",
                    "solo": "false",
                    "mute": "false",
                    "gain": "0.85069444444444287",
                    "frequency": "8000",
                    "q": "1.6000090210024491"
                },
                "band9": {
                    "type": "Bell",
                    "mode": "RLC (BT)",
                    "slope": "x1",
                    "solo": "false",
                    "mute": "false",
                    "gain": "1.2152777777777786",
                    "frequency": "16000",
                    "q": "1.6038081900297951"
                }
            }
        },
        "exciter": {
            "state": "false",
            "input-gain": "0",
            "output-gain": "0",
            "amount": "-5",
            "harmonics": "8.5",
            "scope": "7500",
            "ceil": "16000",
            "blend": "0",
            "ceil-active": "false",
            "listen": "false"
        },
        "filter": {
            "state": "false",
            "input-gain": "0",
            "output-gain": "0",
            "frequency": "2000",
            "resonance": "-3",
            "mode": "12dB\/oct Lowpass",
            "inertia": "20"
        },
        "gate": {
            "state": "false",
            "detection": "RMS",
            "stereo-link": "Average",
            "range": "-24",
            "attack": "20",
            "release": "250",
            "threshold": "-18",
            "ratio": "2",
            "knee": "9",
            "input": "0",
            "makeup": "0"
        },
        "limiter": {
            "state": "false",
            "input-gain": "0",
            "limit": "0",
            "lookahead": "5",
            "release": "100",
            "auto-level": "false",
            "asc": "false",
            "asc-level": "0.5",
            "oversampling": "4",
            "output-gain": "0"
        },
        "maximizer": {
            "state": "true",
            "release": "3.1600000000000001",
            "ceiling": "0",
            "threshold": "-3"
        },
        "pitch": {
            "state": "false",
            "input-gain": "0",
            "output-gain": "0",
            "cents": "0",
            "semitones": "0",
            "octaves": "0",
            "crispness": "3",
            "formant-preserving": "false",
            "faster": "false"
        },
        "reverb": {
            "state": "false",
            "input-gain": "0",
            "output-gain": "0",
            "room-size": "Small",
            "decay-time": "1",
            "hf-damp": "3396.4899999999998",
            "diffusion": "0.5",
            "amount": "-11.378935813903809",
            "dry": "0",
            "predelay": "0",
            "bass-cut": "20",
            "treble-cut": "5000"
        },
        "multiband_compressor": {
            "state": "false",
            "input-gain": "0",
            "output-gain": "0",
            "freq0": "120",
            "freq1": "1000",
            "freq2": "6000",
            "mode": "LR8",
            "subband": {
                "threshold": "-12",
                "ratio": "2",
                "attack": "150",
                "release": "300",
                "makeup": "0",
                "knee": "9",
                "detection": "RMS",
                "bypass": "false",
                "solo": "false"
            },
            "lowband": {
                "threshold": "-12",
                "ratio": "2",
                "attack": "150",
                "release": "300",
                "makeup": "0",
                "knee": "9",
                "detection": "RMS",
                "bypass": "false",
                "solo": "false"
            },
            "midband": {
                "threshold": "-12",
                "ratio": "2",
                "attack": "150",
                "release": "300",
                "makeup": "0",
                "knee": "9",
                "detection": "RMS",
                "bypass": "false",
                "solo": "false"
            },
            "highband": {
                "threshold": "-12",
                "ratio": "2",
                "attack": "150",
                "release": "300",
                "makeup": "0",
                "knee": "9",
                "detection": "RMS",
                "bypass": "false",
                "solo": "false"
            }
        },
        "loudness": {
            "state": "false",
            "fft": "4096",
            "std": "ISO226-2003",
            "input": "0",
            "volume": "0"
        },
        "multiband_gate": {
            "state": "false",
            "input-gain": "0",
            "output-gain": "0",
            "freq0": "120",
            "freq1": "1000",
            "freq2": "6000",
            "mode": "LR8",
            "subband": {
                "reduction": "-24",
                "threshold": "-12",
                "ratio": "2",
                "attack": "150",
                "release": "300",
                "makeup": "0",
                "knee": "9",
                "detection": "RMS",
                "bypass": "false",
                "solo": "false"
            },
            "lowband": {
                "reduction": "-24",
                "threshold": "-12",
                "ratio": "2",
                "attack": "150",
                "release": "300",
                "makeup": "0",
                "knee": "9",
                "detection": "RMS",
                "bypass": "false",
                "solo": "false"
            },
            "midband": {
                "reduction": "-24",
                "threshold": "-12",
                "ratio": "2",
                "attack": "150",
                "release": "300",
                "makeup": "0",
                "knee": "9",
                "detection": "RMS",
                "bypass": "false",
                "solo": "false"
            },
            "highband": {
                "reduction": "-24",
                "threshold": "-12",
                "ratio": "2",
                "attack": "150",
                "release": "300",
                "makeup": "0",
                "knee": "9",
                "detection": "RMS",
                "bypass": "false",
                "solo": "false"
            }
        },
        "stereo_tools": {
            "state": "false",
            "input-gain": "0",
            "output-gain": "0",
            "balance-in": "0",
            "balance-out": "0",
            "softclip": "false",
            "mutel": "false",
            "muter": "false",
            "phasel": "false",
            "phaser": "false",
            "mode": "LR > LR (Stereo Default)",
            "side-level": "0",
            "side-balance": "0",
            "middle-level": "0",
            "middle-panorama": "0",
            "stereo-base": "0",
            "delay": "0",
            "sc-level": "1",
            "stereo-phase": "0"
        },
        "convolver": {
            "state": "false",
            "input-gain": "-2",
            "output-gain": "0",
            "kernel-path": "\/home\/matteo\/.config\/PulseEffects\/irs\/Razor Surround ((48k Z-Edition)) 2.Stereo +20 bass.irs",
            "ir-width": "100"
        },
        "crystalizer": {
            "state": "false",
            "aggressive": "false",
            "input-gain": "0",
            "output-gain": "0",
            "band0": {
                "intensity": "12",
                "mute": "false",
                "bypass": "false"
            },
            "band1": {
                "intensity": "10",
                "mute": "false",
                "bypass": "false"
            },
            "band2": {
                "intensity": "8",
                "mute": "false",
                "bypass": "false"
            },
            "band3": {
                "intensity": "6",
                "mute": "false",
                "bypass": "false"
            },
            "band4": {
                "intensity": "4",
                "mute": "false",
                "bypass": "false"
            },
            "band5": {
                "intensity": "2",
                "mute": "false",
                "bypass": "false"
            },
            "band6": {
                "intensity": "0",
                "mute": "false",
                "bypass": "false"
            },
            "band7": {
                "intensity": "-2",
                "mute": "false",
                "bypass": "false"
            },
            "band8": {
                "intensity": "-4",
                "mute": "false",
                "bypass": "false"
            },
            "band9": {
                "intensity": "-6",
                "mute": "false",
                "bypass": "false"
            },
            "band10": {
                "intensity": "-8",
                "mute": "false",
                "bypass": "false"
            },
            "band11": {
                "intensity": "-10",
                "mute": "false",
                "bypass": "false"
            },
            "band12": {
                "intensity": "-12",
                "mute": "false",
                "bypass": "false"
            }
        },
        "autogain": {
            "state": "false",
            "detect-silence": "false",
            "use-geometric-mean": "true",
            "input-gain": "0",
            "output-gain": "0",
            "target": "-23",
            "weight-m": "1",
            "weight-s": "1",
            "weight-i": "1"
        },
        "delay": {
            "state": "false",
            "input-gain": "0",
            "output-gain": "0",
            "time-l": "0",
            "time-r": "0"
        },
        "rnnoise": {
            "state": "false",
            "input-gain": "0",
            "output-gain": "0",
            "model-path": ""
        }
    }
}
